892831 707181 525
548924 271525 470
811209 227620 509
836914 731518 468
76690 173049 383
735601 403478 509
563493 830354 509
641479 172877 509
827807 673338 504
363837 143893 443
186905 570506 470
698511 290531 509
762802 755142 380
905284 384604 525
296844 514622 470
126422 703879 509
221803 189550 386
975404 547216 525
931373 326523 525
792938 522267 509
499571 42744 449
925745 577268 525
387303 567224 470
750145 729314 424
240562 628186 509
873206 941670 507
198692 85923 383
232201 475698 449
841064 651689 525
374506 652112 509
166311 15132 383
355992 902318 525
204681 845600 525
963738 650259 525
172123 756677 509
172526 671693 509
313625 98271 443
763165 700927 504
665494 27515 509
944446 420261 525
655700 331857 509
361931 368596 361
417779 108337 449
358499 773048 509
760025 733004 424
425160 440541 400
262341 295356 407
342859 981225 525
140956 306597 443
631484 313078 509
577478 804010 509
498975 405308 449
416485 262141 449
620439 81980 470
289655 564885 470
502240 459560 444
896742 378375 525
828155 828725 313
486711 186654 449
601773 246737 470
433863 541138 470
687277 696203 442
836493 544340 509
191633 491654 449
365141 823117 509
804731 942619 525
141332 817911 509
862131 557816 525
594256 482570 470
154000 883910 525
47456 170444 383
857674 458402 525
548819 685830 509
287127 549734 470
386688 403105 436
310675 820550 509
944242 512156 525
30958 294940 443
56496 222591 386
786593 935841 525
559912 591325 434
392665 701243 509
923440 254796 525
773263 517696 509
737365 927263 525
915810 299025 525
611911 773485 509
757426 674934 504
459315 44554 449
224669 360207 443
447658 49548 449
694962 906104 525
561704 240124 470
201044 132404 383
976918 987637 427
582449 536830 452
93167 975113 525
752277 16607 509
229909 39746 386
534302 481479 470
481213 450112 444
780503 93124 509
737801 537930 509
768058 711320 468
96688 506931 449
71528 58550 335
556478 766489 509
478858 632386 509
6613 679901 509
278995 497736 449
667538 861443 525
34566 274909 443
350762 301048 441
291515 580670 470
340793 340021 304
576353 822005 509
304338 356857 441
915128 42139 525
408991 197391 443
753459 19883 509
704321 339191 509
78432 775004 509
619884 557289 447
921594 140701 525
751394 714793 424
638436 933137 525
90442 673002 509
208046 441203 449
488254 13766 449
21873 829046 509
353786 112431 443
165256 172328 352
469287 594588 470
214467 878277 525
791979 482130 509
898159 10505 525
335525 490795 449
299713 955408 525
562288 735512 509
96109 313682 443
450305 734545 509
761023 540746 509
921751 969069 507
981948 410005 525
982834 518026 525
753255 850824 525
630456 432715 509
23153 613947 470
27303 751823 509
492224 333486 449
748157 904587 525
858195 83682 525
909586 157908 525
553294 471874 470
893419 649402 525
299760 857929 525
898151 60784 525
398675 819902 509
544057 894828 525
744111 526891 509
927058 11571 525
891919 71719 525
444285 915071 525
685665 471588 509
181099 692093 509
319278 929255 525
110885 177473 383
527141 20471 470
335381 80435 443
6549 743004 509
244042 820512 509
115138 142193 349
881295 28018 525
476300 939556 525
922845 734615 525
980651 364108 525
746186 872571 525
435826 704675 509
301847 121491 443
176263 482946 449
813583 495541 509
926405 924467 339
673013 453547 509
459142 522598 470
48186 465690 449
779807 292227 509
286202 894944 525
948624 681702 525
922961 939128 476
621258 360011 470
673743 601910 509
724118 934133 525
988685 159944 525
638809 290532 509
795638 329276 509
773477 609221 509
339021 214088 443
47893 526239 470
667634 507034 509
48837 230024 386
